[gd_scene load_steps=5 format=2]

[ext_resource path="res://Player.tscn" type="PackedScene" id=1]
[ext_resource path="res://Level1.tscn" type="PackedScene" id=2]
[ext_resource path="res://PlayerCamera.gd" type="Script" id=3]
[ext_resource path="res://DayNightCycle.tscn" type="PackedScene" id=5]

[node name="MainScene" type="Node2D"]

[node name="DayNightCycle" parent="." instance=ExtResource( 5 )]

[node name="PlayerCamera" type="Camera2D" parent="."]
position = Vector2( 320, 240 )
current = true
script = ExtResource( 3 )

[node name="Level1" parent="." instance=ExtResource( 2 )]

[node name="Player" parent="." instance=ExtResource( 1 )]
position = Vector2( 224, 362 )
scale = Vector2( 2, 2 )
